{
  "roles": {
    "exec_manager": {
      "inherits": "guest",
      "privileges": {
        "cms": [
          "list",
          "view"
        ],
        "marketing": [
          "list",
          "view"
        ],
        "blog": [
          "list",
          "view",
          "add",
          "edit"
        ],
        "media": [
          "list",
          "view"
        ],
        "faq": [
          "list",
          "view"
        ],
        "building": [
          "list",
          "view",
          "edit",
          "delete"
        ],
        "units": [
          "list",
          "view",
          "add",
          "edit",
          "delete",
          "new"
        ],
        "amenities": [
          "list",
          "view",
          "add",
          "edit",
          "delete"
        ],
        "floorplan": [
          "list",
          "view",
          "add",
          "edit",
          "delete"
        ],
        "region": [
          "list",
          "view",
          "add",
          "edit",
          "delete"
        ],
        "coi": [
          "list",
          "view",
          "add",
          "edit",
          "delete"
        ]
      }
    },
    "leasing_manager": {
      "inherits": "guest",
      "privileges": {
        "marketing": [
          "list",
          "view",
          "add",
          "edit"
        ],
        "building": [
          "list",
          "view",
          "edit"
        ],
        "units": [
          "list",
          "view",
          "add",
          "edit"
        ],
        "amenities": [
          "list",
          "view",
          "add",
          "edit"
        ],
        "floorplan": [
          "list",
          "view",
          "add",
          "edit"
        ],
        "region": [
          "list",
          "view",
          "edit"
        ],
        "coi": [
          "list",
          "view",
          "edit"
        ]
      }
    },
    "leasing_agent": {
      "inherits": "guest",
      "privileges": {
        "building": [
          "list",
          "view"
        ],
        "units": [
          "list",
          "view",
          "edit"
        ],
        "amenities": [
          "list",
          "view"
        ],
        "floorplan": [
          "list",
          "view"
        ],
        "coi": [
          "list",
          "view"
        ]
      }
    }
  },
  "resources": [
    "building",
    "amenities",
    "units",
    "floorplan",
    "region",
    "coi"
  ]
}
