{
  "roles": {
    "editor": {
      "inherits": "guest",
      "privileges": {
        "cms": [
          "list",
          "view",
          "add",
          "edit"
        ],
        "marketing": [
          "list",
          "view",
          "add",
          "edit"
        ],
        "blog": [
          "list",
          "view",
          "add",
          "edit"
        ],
        "media": [
          "list",
          "view",
          "add",
          "edit"
        ],
        "product_reviews": [
          "list",
          "view",
          "add",
          "edit"
        ],
        "faq": [
          "list",
          "view",
          "add",
          "edit"
        ],
        "videos": [
          "list",
          "view",
          "add",
          "edit"
        ],
        "video_platform": [
          "list",
          "view",
          "add",
          "edit",
          "library"
        ],
        "zype": [
          "list",
          "view",
          "add",
          "edit",
          "library"
        ]
      }
    },
    "video_member": {
      "inherits": "guest",
      "is_website_member": true,
      "privileges": {
        "users": [
          "view"
        ],
        "video_platform": [
          "library",
          "view",
          "add",
          "edit"
        ]
      }
    }
  },
  "resources": [
    "home",
    "cms",
    "blog",
    "media",
    "users",
    "configurations",
    "ecommerce",
    "promotion",
    "product_reviews",
    "faq",
    "videos",
    "video_platform",
    "zype",
    "marketing"
  ]
}
